freelance
…
So now we have a deeper insights about what each class had ordered most and we can use this for customized offers !

Q4) Do the data reveal some common association between best sellers or between worst sellers or we need more information ?

## # A tibble: 166 x 4
## # Groups:   Lineitem name [166]
##    `Lineitem name`                Items_category quantity   sales
##    <chr>                          <chr>             <dbl>   <dbl>
##  1 15' Cafe x Pink Laptop Bag     Laptop bags          40 -22680 
##  2 Havane Weekender               Summer bags          35 -21190 
##  3 Havane Tassel Backpack         Backpack             40 -18470 
##  4 Black Weekender                Summer bags          30 -18045 
##  5 15' Black x RedBlue Laptop Bag Laptop bags          27 -15235 
##  6 Havane Org Laptop Bag          Laptop bags          25 -13915 
##  7 Off White Weekender            Summer bags          22 -13470 
##  8 Black Tassel Backpack          Backpack             28 -13102.
##  9 Original Laptop Cocoa          Laptop bags          25 -13052.
## 10 15' Havane x Pink Laptop Bag   Laptop bags          22 -12340 
## # ... with 156 more rows
…
